<?xml version="1.0" encoding="UTF-8"?>
<!DOCTYPE StepCoreXML>
<world xmlns="https://edu.kde.org/step/StepCoreXML" version="1.0" id="1">
    <name>world1</name>
    <color>#ffffffff</color>
    <time>182.48639980386133</time>
    <timeScale>1</timeScale>
    <errorsCalculation>false</errorsCalculation>
    <item class="WeightForce" id="2">
        <name>weightForce1</name>
        <color>#ff000000</color>
        <weightConst>9.80665</weightConst>
        <weightConstVariance>1.0000000000000002e-10</weightConstVariance>
    </item>
    <item class="Box" id="3">
        <name>ground</name>
        <color>#ff636363</color>
        <position>(-0.0496694,-0.0454922)</position>
        <angle>-0.0015211342515399021</angle>
        <velocity>(-0.00198772,0.00834619)</velocity>
        <angularVelocity>-0.0008756651991137382</angularVelocity>
        <mass>1</mass>
        <inertia>0.1158506666666667</inertia>
        <size>(12,0.1)</size>
        <positionVariance>(0,0)</positionVariance>
        <angleVariance>0</angleVariance>
        <velocityVariance>(0,0)</velocityVariance>
        <angularVelocityVariance>0</angularVelocityVariance>
        <massVariance>0</massVariance>
        <inertiaVariance>0</inertiaVariance>
    </item>
    <item class="Spring" id="4">
        <name>spring2</name>
        <color>#ff00ff00</color>
        <restLength>1</restLength>
        <stiffness>100</stiffness>
        <damping>10</damping>
        <body1>3</body1>
        <body2>0</body2>
        <localPosition1>(-5.90852,0.0139919)</localPosition1>
        <localPosition2>(-5.96243,-0.971693)</localPosition2>
        <restLengthVariance>0</restLengthVariance>
        <stiffnessVariance>0</stiffnessVariance>
        <dampingVariance>0</dampingVariance>
        <localPosition1Variance>(0,0)</localPosition1Variance>
        <localPosition2Variance>(0,0)</localPosition2Variance>
    </item>
    <item class="Spring" id="5">
        <name>spring1</name>
        <color>#ff00ff00</color>
        <restLength>1</restLength>
        <stiffness>100</stiffness>
        <damping>10</damping>
        <body1>3</body1>
        <body2>0</body2>
        <localPosition1>(5.72,0)</localPosition1>
        <localPosition2>(5.72,-1)</localPosition2>
        <restLengthVariance>0</restLengthVariance>
        <stiffnessVariance>0</stiffnessVariance>
        <dampingVariance>0</dampingVariance>
        <localPosition1Variance>(0,0)</localPosition1Variance>
        <localPosition2Variance>(0,0)</localPosition2Variance>
    </item>
    <item class="Box" id="6">
        <name>copter</name>
        <color>#ff000000</color>
        <position>(-0.478105,2.89932)</position>
        <angle>-0.0035859999999999998</angle>
        <velocity>(0,0)</velocity>
        <angularVelocity>0.6</angularVelocity>
        <mass>0.7819999999999999</mass>
        <inertia>0.027399999999999997</inertia>
        <size>(0.33,0.09)</size>
        <positionVariance>(0,0)</positionVariance>
        <angleVariance>0</angleVariance>
        <velocityVariance>(0,0)</velocityVariance>
        <angularVelocityVariance>0</angularVelocityVariance>
        <massVariance>0</massVariance>
        <inertiaVariance>0</inertiaVariance>
    </item>
    <item class="LinearMotor" id="7">
        <name>leftRotor</name>
        <color>#ff0000ff</color>
        <body>6</body>
        <localPosition>(-0.16228,0.0288216)</localPosition>
        <forceValue>(0,0.287903)</forceValue>
        <rigidlyFixed>true</rigidlyFixed>
    </item>
    <item class="LinearMotor" id="8">
        <name>rightRotor</name>
        <color>#ff0000ff</color>
        <body>6</body>
        <localPosition>(0.16306,0.0230849)</localPosition>
        <forceValue>(0,0.287903)</forceValue>
        <rigidlyFixed>true</rigidlyFixed>
    </item>
    <item class="CopterControl" id="9">
        <name>copterControl</name>
        <color>#ff000000</color>
    </item>
    <item class="Anchor" id="10">
        <name>anchor3</name>
        <color>#ffff0000</color>
        <body>11</body>
        <position>(6.15039,-0.33378)</position>
        <angle>-1.0391521885767882e-05</angle>
    </item>
    <item class="Box" id="11">
        <name>box3</name>
        <color>#ff000000</color>
        <position>(6.15039,-0.33378)</position>
        <angle>-1.0391521885767882e-05</angle>
        <velocity>(-3.0904e-09,1.15855e-08)</velocity>
        <angularVelocity>1.0390470426985181e-05</angularVelocity>
        <mass>1</mass>
        <inertia>0.17808024088541605</inertia>
        <size>(0.2539,1)</size>
        <positionVariance>(0,0)</positionVariance>
        <angleVariance>0</angleVariance>
        <velocityVariance>(0,0)</velocityVariance>
        <angularVelocityVariance>0</angularVelocityVariance>
        <massVariance>0</massVariance>
        <inertiaVariance>0</inertiaVariance>
    </item>
    <item class="Anchor" id="12">
        <name>anchor1</name>
        <color>#ffff0000</color>
        <body>13</body>
        <position>(-6.2313,-0.446341)</position>
        <angle>-1.0391521885767882e-05</angle>
    </item>
    <item class="Box" id="13">
        <name>box1</name>
        <color>#ff000000</color>
        <position>(-6.2313,-0.446341)</position>
        <angle>-1.0391521885767882e-05</angle>
        <velocity>(-3.0904e-09,1.15855e-08)</velocity>
        <angularVelocity>1.0390470426985181e-05</angularVelocity>
        <mass>1</mass>
        <inertia>0.17808024088541605</inertia>
        <size>(0.2539,1)</size>
        <positionVariance>(0,0)</positionVariance>
        <angleVariance>0</angleVariance>
        <velocityVariance>(0,0)</velocityVariance>
        <angularVelocityVariance>0</angularVelocityVariance>
        <massVariance>0</massVariance>
        <inertiaVariance>0</inertiaVariance>
    </item>
    <item class="Graph" id="14">
        <name>graph1</name>
        <color>#ff000000</color>
        <position>(-11.2387,21.9237)</position>
        <size>(400,300)</size>
        <objectX>1</objectX>
        <propertyX>time</propertyX>
        <indexX>-1</indexX>
        <objectY>6</objectY>
        <propertyY>angle</propertyY>
        <indexY>-1</indexY>
        <autoLimitsX>true</autoLimitsX>
        <autoLimitsY>true</autoLimitsY>
        <limitsX>(0,1)</limitsX>
        <limitsY>(0,1)</limitsY>
        <showPoints>false</showPoints>
        <showLines>true</showLines>
    </item>
    <item class="Graph" id="15">
        <name>graph2</name>
        <color>#ff000000</color>
        <position>(9.23012,22.5757)</position>
        <size>(400,300)</size>
        <objectX>1</objectX>
        <propertyX>time</propertyX>
        <indexX>-1</indexX>
        <objectY>6</objectY>
        <propertyY>angularVelocity</propertyY>
        <indexY>-1</indexY>
        <autoLimitsX>true</autoLimitsX>
        <autoLimitsY>true</autoLimitsY>
        <limitsX>(0,1)</limitsX>
        <limitsY>(0,1)</limitsY>
        <showPoints>false</showPoints>
        <showLines>true</showLines>
    </item>
    <item class="Pin" id="16">
        <name>pin1</name>
        <color>#ffff0000</color>
        <body>6</body>
        <localPosition>(-0.000244399,-0.038072)</localPosition>
        <position>(-0.478486,2.86125)</position>
    </item>
    <solver class="GslAdaptiveRK2Solver" id="17">
        <name>solver1</name>
        <stepSize>0.00019329846639096427</stepSize>
        <toleranceAbs>0.0009999999999999998</toleranceAbs>
        <toleranceRel>0.0009999999999999998</toleranceRel>
    </solver>
    <collisionSolver class="GJKCollisionSolver" id="18">
        <name>collisionSolver1</name>
        <toleranceAbs>0.001</toleranceAbs>
    </collisionSolver>
    <constraintSolver class="CGConstraintSolver" id="19">
        <name>constraintSolver1</name>
    </constraintSolver>
</world>
